strict graph {
AGG -- GGG
TGG -- GGG
CGG -- GGG
GAG -- GGG
GTG -- GGG
GCG -- GGG
GGT -- GGG
AGG -- TGG
CGG -- TGG
GGG -- TGG
TAG -- TGG
TTG -- TGG
TCG -- TGG
TGT -- TGG
TGG -- AGG
CGG -- AGG
GGG -- AGG
AAG -- AGG
ATG -- AGG
ACG -- AGG
AGT -- AGG
AGG -- CGG
TGG -- CGG
GGG -- CGG
CAG -- CGG
CTG -- CGG
CCG -- CGG
CGT -- CGG
ATG -- GTG
TTG -- GTG
CTG -- GTG
GAG -- GTG
GCG -- GTG
GGG -- GTG
GTT -- GTG
ATG -- TTG
CTG -- TTG
GTG -- TTG
TAG -- TTG
TCG -- TTG
TGG -- TTG
TTT -- TTG
TTG -- ATG
CTG -- ATG
GTG -- ATG
AAG -- ATG
ACG -- ATG
AGG -- ATG
ATT -- ATG
ATG -- CTG
TTG -- CTG
GTG -- CTG
CAG -- CTG
CCG -- CTG
CGG -- CTG
CTT -- CTG
AAG -- GAG
TAG -- GAG
CAG -- GAG
GTG -- GAG
GCG -- GAG
GGG -- GAG
GAT -- GAG
AAG -- TAG
CAG -- TAG
GAG -- TAG
TTG -- TAG
TCG -- TAG
TGG -- TAG
TAT -- TAG
TAG -- AAG
CAG -- AAG
GAG -- AAG
ATG -- AAG
ACG -- AAG
AGG -- AAG
AAT -- AAG
AAG -- CAG
TAG -- CAG
GAG -- CAG
CTG -- CAG
CCG -- CAG
CGG -- CAG
CAT -- CAG
ACG -- GCG
TCG -- GCG
CCG -- GCG
GAG -- GCG
GTG -- GCG
GGG -- GCG
ACG -- TCG
CCG -- TCG
GCG -- TCG
TAG -- TCG
TTG -- TCG
TGG -- TCG
TCG -- ACG
CCG -- ACG
GCG -- ACG
AAG -- ACG
ATG -- ACG
AGG -- ACG
ACG -- CCG
TCG -- CCG
GCG -- CCG
CAG -- CCG
CTG -- CCG
CGG -- CCG
AGT -- GGT
TGT -- GGT
CGT -- GGT
GAT -- GGT
GTT -- GGT
GGG -- GGT
AGT -- TGT
CGT -- TGT
GGT -- TGT
TAT -- TGT
TTT -- TGT
TGG -- TGT
TGT -- AGT
CGT -- AGT
GGT -- AGT
AAT -- AGT
ATT -- AGT
AGG -- AGT
AGT -- CGT
TGT -- CGT
GGT -- CGT
CAT -- CGT
CTT -- CGT
CGG -- CGT
ATT -- GTT
TTT -- GTT
CTT -- GTT
GAT -- GTT
GGT -- GTT
GTG -- GTT
ATT -- TTT
CTT -- TTT
GTT -- TTT
TAT -- TTT
TGT -- TTT
TTG -- TTT
TTT -- ATT
CTT -- ATT
GTT -- ATT
AAT -- ATT
AGT -- ATT
ATG -- ATT
ATT -- CTT
TTT -- CTT
GTT -- CTT
CAT -- CTT
CGT -- CTT
CTG -- CTT
AAT -- GAT
TAT -- GAT
CAT -- GAT
GTT -- GAT
GGT -- GAT
GAG -- GAT
AAT -- TAT
CAT -- TAT
GAT -- TAT
TTT -- TAT
TGT -- TAT
TAG -- TAT
TAT -- AAT
CAT -- AAT
GAT -- AAT
ATT -- AAT
AGT -- AAT
AAG -- AAT
AAT -- CAT
TAT -- CAT
GAT -- CAT
CTT -- CAT
CGT -- CAT
CAG -- CAT
}
